<?xml version="1.0" encoding="utf-8"?>
<!-- Generator: Adobe Illustrator 19.1.0, SVG Export Plug-In . SVG Version: 6.00 Build 0)  -->
<svg version="1.1" id="Layer_1" xmlns="http://www.w3.org/2000/svg" xmlns:xlink="http://www.w3.org/1999/xlink" x="0px" y="0px"
	 viewBox="0 0 32 32" enable-background="new 0 0 32 32" xml:space="preserve">
<path fill="#455B65" d="M29.666,20.146v-5.613c0-0.716-0.258-1.366-0.672-1.887c-0.025-0.052-0.036-0.109-0.071-0.158l-6.395-8.882
	c-0.188-0.261-0.49-0.416-0.812-0.416H10.283c-0.321,0-0.624,0.155-0.812,0.416l-6.395,8.882c-0.035,0.049-0.046,0.105-0.071,0.158
	c-0.414,0.521-0.672,1.171-0.672,1.887v5.613c0,0.287,0.124,0.541,0.317,0.723c-0.197,0.403-0.317,0.85-0.317,1.328v5.613
	c0,0.552,0.447,1,1,1h25.332c0.553,0,1-0.448,1-1v-5.613c0-0.478-0.12-0.924-0.317-1.328C29.542,20.686,29.666,20.432,29.666,20.146
	z M10.057,19.146H5.385H4.334v-4.613c0-0.58,0.472-1.051,1.051-1.051h4.244l2.75,2.877c0.188,0.197,0.449,0.309,0.723,0.309h5.797
	c0.273,0,0.534-0.112,0.723-0.309l2.75-2.877h4.244c0.579,0,1.051,0.471,1.051,1.051v4.613h-1.051h-4.672H10.057z M19.605,21.146
	l-1.134,1.187h-4.941l-1.134-1.187H19.605z M10.796,5.19h10.408l4.53,6.292h-3.79c-0.273,0-0.534,0.112-0.723,0.309l-2.75,2.877
	h-4.941l-2.75-2.877c-0.188-0.197-0.449-0.309-0.723-0.309h-3.79L10.796,5.19z M27.666,26.81H4.334v-4.613
	c0-0.58,0.472-1.051,1.051-1.051h4.244l2.75,2.878c0.188,0.197,0.449,0.309,0.723,0.309h5.797c0.273,0,0.534-0.112,0.723-0.309
	l2.75-2.878h4.244c0.579,0,1.051,0.471,1.051,1.051V26.81z"/>
</svg>
